{
  "web": [ {
    "1": {
      "name": "Example Text",
      "desc": "Lorem ipsum dolor sit amet, consectetur adipisicing elit. Consequatur excepturi fugiat hic nemo odio perferendis?",
      "url": "https://www.youtube.com/watch?v=dQw4w9WgXcQ"
    },
    "2": {
      "name": "Example Text",
      "desc": "Lorem ipsum dolor sit amet, consectetur adipisicing elit. Consequatur excepturi fugiat hic nemo odio perferendis?",
      "url": "https://www.youtube.com/watch?v=dQw4w9WgXcQ"
    },
    "3": {
      "name": "Example Text",
      "desc": "Lorem ipsum dolor sit amet, consectetur adipisicing elit. Consequatur excepturi fugiat hic nemo odio perferendis?",
      "url": "https://www.youtube.com/watch?v=dQw4w9WgXcQ"
    },
    "4": {
      "name": "Example Text",
      "desc": "Lorem ipsum dolor sit amet, consectetur adipisicing elit. Consequatur excepturi fugiat hic nemo odio perferendis?",
      "url": "https://www.youtube.com/watch?v=dQw4w9WgXcQ"
    }
  } ]
}